{
  "Jenkinsfile-vim-syntax": { "branch": "master", "commit": "0d05729168ea44d60862f17cffa80024ab30bcc9" },
  "cloak.nvim": { "branch": "main", "commit": "6e5bcd50bebc5cdb7cd3a00eb3d97ab7c4cc3b94" },
  "dracula.nvim": { "branch": "main", "commit": "8d8bddb8814c3e7e62d80dda65a9876f97eb699c" },
  "indent-blankline.nvim": { "branch": "master", "commit": "d98f537c3492e87b6dc6c2e3f66ac517528f406f" },
  "lazy.nvim": { "branch": "main", "commit": "b0ba3f9399bf48c86abaa4db1a40bd0b681d5018" },
  "markdown-preview.nvim": { "branch": "main", "commit": "462ce41af003f5cdadab856f3a42dc27e39b89c8" },
  "mini.nvim": { "branch": "stable", "commit": "f24747266a047617d06605a2316aa6c071662fa2" },
  "nvim-treesitter": { "branch": "master", "commit": "a80fe081b4c5890980561e0de2458f64aaffbfc7" },
  "nvim-web-devicons": { "branch": "master", "commit": "b77921fdc44833c994fdb389d658ccbce5490c16" },
  "plenary.nvim": { "branch": "master", "commit": "a3e3bc82a3f95c5ed0d7201546d5d2c19b20d683" },
  "salt-vim": { "branch": "master", "commit": "d44e57ab3c39706cbffecc91d22a3ce5f085707c" },
  "telescope-fzf-native.nvim": { "branch": "main", "commit": "9ef21b2e6bb6ebeaf349a0781745549bbb870d27" },
  "telescope-ui-select.nvim": { "branch": "master", "commit": "6e51d7da30bd139a6950adf2a47fda6df9fa06d2" },
  "telescope.nvim": { "branch": "0.1.x", "commit": "a0bbec21143c7bc5f8bb02e0005fa0b982edc026" },
  "todo-comments.nvim": { "branch": "main", "commit": "70a93ce66083699571adc361166504b03cc39c2b" },
  "tokyonight.nvim": { "branch": "main", "commit": "7e5ef71a103e7de5fe6c05f5d6ab97d1640f08cf" },
  "trouble.nvim": { "branch": "main", "commit": "915179759c9459b69faae90a38da6fc1ca6b90d7" },
  "undotree": { "branch": "master", "commit": "56c684a805fe948936cda0d1b19505b84ad7e065" },
  "vim-css-color": { "branch": "master", "commit": "950e80352b325ff26d3b0faf95b29e301c200f7d" },
  "vim-helm": { "branch": "master", "commit": "ae1ebc160d2b9b90108477ab10df7a4fc501e358" },
  "vim-terraform": { "branch": "master", "commit": "24de93afb05078bac6a2e966402cc1f672277708" },
  "which-key.nvim": { "branch": "main", "commit": "4b7167f8fb2dba3d01980735e3509e172c024c29" }
}